^D:\DOCUMENTS\VISUAL STUDIO 2013\PROJECTS\DEPTH2POINTCLOUD\DEPTH2POINTCLOUD\X64\DEBUG\MAIN.OBJ
D:\DOCUMENTS\VISUAL STUDIO 2013\PROJECTS\DEPTH2POINTCLOUD\X64\DEBUG\DEPTH2POINTCLOUD.ILK
D:\DOCUMENTS\VISUAL STUDIO 2013\PROJECTS\DEPTH2POINTCLOUD\X64\DEBUG\DEPTH2POINTCLOUD.EXE
D:\DOCUMENTS\VISUAL STUDIO 2013\PROJECTS\DEPTH2POINTCLOUD\X64\DEBUG\DEPTH2POINTCLOUD.PDB
